…
group_sizes = 2:50
results = tibble(group_size = group_sizes, prob = NA)
for (i in seq_along(group_sizes)) {
  same_birth = sum(replicate(10000,birthday(group_sizes[i])))
  prob <- same_birth / 10000
  results$prob[i] <- prob
}

print(results)
```

    ## # A tibble: 49 × 2
    ##    group_size   prob
    ##         <int>  <dbl>
    ##  1          2 0.0032
    ##  2          3 0.0081
    ##  3          4 0.0187
    ##  4          5 0.0267
    ##  5          6 0.042 
    ##  6          7 0.0571
    ##  7          8 0.0768
    ##  8          9 0.0952
    ##  9         10 0.113 
    ## 10         11 0.140 
    ## # ℹ 39 more rows
…
